…
``` r
pacman::p_load(PortRisk)

# First get the contributions to overall portfolio return made by each stock:
Rand_Contribution <- Rand_RetPort$"contribution" %>% xts_tbl()

# Notice that this adds up to the portfolio return at each date:
left_join(Rand_Contribution %>% gather(Stocks, RetCont, -date) %>% group_by(date) %>% summarise(Verify_Ret = sum(RetCont)), 
          Rand_RetPort$returns %>% xts_tbl, by = "date") %>% mutate(Diff = round(Verify_Ret - portfolio.returns, 5))
```

    ## # A tibble: 3,548 × 4
    ##    date       Verify_Ret portfolio.returns  Diff
    ##    <date>          <dbl>             <dbl> <dbl>
    ##  1 2006-01-31    0.0133            0.0133      0
    ##  2 2006-02-01    0.0188            0.0188      0
    ##  3 2006-02-02   -0.0105           -0.0105      0
    ##  4 2006-02-03   -0.0232           -0.0232      0
    ##  5 2006-02-06    0.0190            0.0190      0
    ##  6 2006-02-07   -0.00937          -0.00937     0
    ##  7 2006-02-08   -0.0243           -0.0243      0
    ##  8 2006-02-09    0.0251            0.0251      0
    ##  9 2006-02-10    0.00225           0.00225     0
    ## 10 2006-02-13   -0.0230           -0.0230      0
    ## # ℹ 3,538 more rows
…
